…
``` r
View(listings)
```

Take a look inside your dataset

``` r
listings
```

    ## # A tibble: 67,565 x 16
    ##       id name  host_id host_name neighbourhood_g~ neighbourhood latitude
    ##    <dbl> <chr>   <dbl> <chr>     <lgl>            <chr>            <dbl>
    ##  1  2577 Loft~    2827 Karine    NA               Entrepôt          48.9
    ##  2  3109 zen ~    3631 Anne      NA               Observatoire      48.8
    ##  3  4886 Coun~    6792 Jennifer~ NA               Popincourt        48.9
    ##  4  4890 Quie~    6792 Jennifer~ NA               Temple            48.9
    ##  5  5396 Expl~    7903 Borzou    NA               Hôtel-de-Vil~     48.9
    ##  6  7397 MARA~    2626 Franck    NA               Hôtel-de-Vil~     48.9
    ##  7  7964 Larg~   22155 Anaïs     NA               Opéra             48.9
    ##  8  9359 Cozy~   28422 Bernadet~ NA               Louvre            48.9
    ##  9  9952 Pari~   33534 Elisabeth NA               Popincourt        48.9
    ## 10 10586 Mont~   37107 Michael   NA               Buttes-Montm~     48.9
    ## # ... with 67,555 more rows, and 9 more variables: longitude <dbl>,
    ## #   room_type <chr>, price <dbl>, minimum_nights <dbl>,
    ## #   number_of_reviews <dbl>, last_review <date>, reviews_per_month <dbl>,
    ## #   calculated_host_listings_count <dbl>, availability_365 <dbl>
…
  - Can you see any unusual patterns? What might explain them?

There is an unusal pattern because the number of airbnbs increasing at
75, 175, 275, and 365. This could again be because this amount of time
could be more normal for people renting.

``` r
listings
```

    ## # A tibble: 67,565 x 16
    ##       id name  host_id host_name neighbourhood_g~ neighbourhood latitude
    ##    <dbl> <chr>   <dbl> <chr>     <lgl>            <chr>            <dbl>
    ##  1  2577 Loft~    2827 Karine    NA               Entrepôt          48.9
    ##  2  3109 zen ~    3631 Anne      NA               Observatoire      48.8
    ##  3  4886 Coun~    6792 Jennifer~ NA               Popincourt        48.9
    ##  4  4890 Quie~    6792 Jennifer~ NA               Temple            48.9
    ##  5  5396 Expl~    7903 Borzou    NA               Hôtel-de-Vil~     48.9
    ##  6  7397 MARA~    2626 Franck    NA               Hôtel-de-Vil~     48.9
    ##  7  7964 Larg~   22155 Anaïs     NA               Opéra             48.9
    ##  8  9359 Cozy~   28422 Bernadet~ NA               Louvre            48.9
    ##  9  9952 Pari~   33534 Elisabeth NA               Popincourt        48.9
    ## 10 10586 Mont~   37107 Michael   NA               Buttes-Montm~     48.9
    ## # ... with 67,555 more rows, and 9 more variables: longitude <dbl>,
    ## #   room_type <chr>, price <dbl>, minimum_nights <dbl>,
    ## #   number_of_reviews <dbl>, last_review <date>, reviews_per_month <dbl>,
    ## #   calculated_host_listings_count <dbl>, availability_365 <dbl>

What seems to be the most common name (of a person) in the city you
selected?

Marie

``` r
listings %>%
  count(host_name) %>%
  arrange(desc(n)) 
```

    ## # A tibble: 10,674 x 2
    ##    host_name     n
    ##    <chr>     <int>
    ##  1 Marie       692
    ##  2 Pierre      585
    ##  3 Nicolas     533
    ##  4 Guillaume   471
    ##  5 Sophie      459
    ##  6 Camille     454
    ##  7 Thomas      444
    ##  8 Julien      434
    ##  9 Sandra      416
    ## 10 Antoine     411
    ## # ... with 10,664 more rows
…
Use your dataset to find what the average Airbnb price/night is in the
neighborhood you selected.

Use your dataset to find what the average number of available nights per
year is for an Airbnb in the neighborhood you selected.

Suppose you bought the property you selected above. If you were to rent
it as an Airbnba t the average neighborhood price, for the average
number of days, how long will it take you to break even?

``` r
listings
```

    ## # A tibble: 67,565 x 16
    ##       id name  host_id host_name neighbourhood_g~ neighbourhood latitude
    ##    <dbl> <chr>   <dbl> <chr>     <lgl>            <chr>            <dbl>
    ##  1  2577 Loft~    2827 Karine    NA               Entrepôt          48.9
    ##  2  3109 zen ~    3631 Anne      NA               Observatoire      48.8
    ##  3  4886 Coun~    6792 Jennifer~ NA               Popincourt        48.9
    ##  4  4890 Quie~    6792 Jennifer~ NA               Temple            48.9
    ##  5  5396 Expl~    7903 Borzou    NA               Hôtel-de-Vil~     48.9
    ##  6  7397 MARA~    2626 Franck    NA               Hôtel-de-Vil~     48.9
    ##  7  7964 Larg~   22155 Anaïs     NA               Opéra             48.9
    ##  8  9359 Cozy~   28422 Bernadet~ NA               Louvre            48.9
    ##  9  9952 Pari~   33534 Elisabeth NA               Popincourt        48.9
    ## 10 10586 Mont~   37107 Michael   NA               Buttes-Montm~     48.9
    ## # ... with 67,555 more rows, and 9 more variables: longitude <dbl>,
    ## #   room_type <chr>, price <dbl>, minimum_nights <dbl>,
    ## #   number_of_reviews <dbl>, last_review <date>, reviews_per_month <dbl>,
    ## #   calculated_host_listings_count <dbl>, availability_365 <dbl>
…
summarize(Elysee, avg_price = mean(price, na.rm = TRUE), avg_nights = mean(availability_365, na.rm = TRUE))
```

    ## # A tibble: 1 x 2
    ##   avg_price avg_nights
    ##       <dbl>      <dbl>
    ## 1      231.       161.

``` r
Elysee
```

    ## # A tibble: 1,848 x 16
    ##        id name  host_id host_name neighbourhood_g~ neighbourhood latitude
    ##     <dbl> <chr>   <dbl> <chr>     <lgl>            <chr>            <dbl>
    ##  1  10710 "Cal~   38170 Josiane   NA               Élysée            48.9
    ##  2  22158 "Art~   84874 Fabienne  NA               Élysée            48.9
    ##  3  24260 "Lov~   98012 Emmanuel  NA               Élysée            48.9
    ##  4  48592 "Cha~  152242 Delphine  NA               Élysée            48.9
    ##  5  55239 "Lux~  260696 Joseph    NA               Élysée            48.9
    ##  6 108591 "Lux~  561870 Madame D  NA               Élysée            48.9
    ##  7 162163 "Bra~  775000 Justin &~ NA               Élysée            48.9
    ##  8 171159 "Lov~  193142 Carole    NA               Élysée            48.9
    ##  9 183599 "Cha~  876138 Dina      NA               Élysée            48.9
    ## 10 219564 "LOF~  189040 Morgane   NA               Élysée            48.9
    ## # ... with 1,838 more rows, and 9 more variables: longitude <dbl>,
    ## #   room_type <chr>, price <dbl>, minimum_nights <dbl>,
    ## #   number_of_reviews <dbl>, last_review <date>, reviews_per_month <dbl>,
    ## #   calculated_host_listings_count <dbl>, availability_365 <dbl>
…
