…
``` r
View(StudentsPerformance)
```

``` r
netflix_titles
```

    ## # A tibble: 6,234 x 12
    ##    show_id type  title director cast  country date_added release_year rating
    ##      <dbl> <chr> <chr> <chr>    <chr> <chr>   <chr>             <dbl> <chr> 
    ##  1  8.11e7 Movie Norm~ Richard~ Alan~ United~ September~         2019 TV-PG 
    ##  2  8.01e7 Movie Jand~ <NA>     Jand~ United~ September~         2016 TV-MA 
    ##  3  7.02e7 TV S~ Tran~ <NA>     Pete~ United~ September~         2013 TV-Y7~
    ##  4  8.01e7 TV S~ Tran~ <NA>     Will~ United~ September~         2016 TV-Y7 
    ##  5  8.01e7 Movie #rea~ Fernand~ Nest~ United~ September~         2017 TV-14 
    ##  6  8.02e7 TV S~ Apac~ <NA>     Albe~ Spain   September~         2016 TV-MA 
    ##  7  7.03e7 Movie Auto~ Gabe Ib~ Anto~ Bulgar~ September~         2014 R     
    ##  8  8.02e7 Movie Fabr~ Rodrigo~ Fabr~ Chile   September~         2017 TV-MA 
    ##  9  8.01e7 TV S~ Fire~ <NA>     <NA>  United~ September~         2017 TV-MA 
    ## 10  7.03e7 Movie Good~ Henrik ~ Jame~ United~ September~         2014 R     
    ## # ... with 6,224 more rows, and 3 more variables: duration <chr>,
    ## #   listed_in <chr>, description <chr>

``` r
StudentsPerformance
```

    ## # A tibble: 1,000 x 8
    ##    gender `race/ethnicity` `parental level~ lunch `test preparati~ `math score`
    ##    <chr>  <chr>            <chr>            <chr> <chr>                   <dbl>
    ##  1 female group B          bachelor's degr~ stan~ none                       72
    ##  2 female group C          some college     stan~ completed                  69
    ##  3 female group B          master's degree  stan~ none                       90
    ##  4 male   group A          associate's deg~ free~ none                       47
    ##  5 male   group C          some college     stan~ none                       76
    ##  6 female group B          associate's deg~ stan~ none                       71
    ##  7 female group B          some college     stan~ completed                  88
    ##  8 male   group B          some college     free~ none                       40
    ##  9 male   group D          high school      free~ completed                  64
    ## 10 female group B          high school      free~ none                       38
    ## # ... with 990 more rows, and 2 more variables: `reading score` <dbl>, `writing
    ## #   score` <dbl>

``` r
StudentsPerformance <- rename(StudentsPerformance, reading.score = 'reading score', math.score = 'math score')

StudentsPerformance
```

    ## # A tibble: 1,000 x 8
    ##    gender `race/ethnicity` `parental level~ lunch `test preparati~ math.score
    ##    <chr>  <chr>            <chr>            <chr> <chr>                 <dbl>
    ##  1 female group B          bachelor's degr~ stan~ none                     72
    ##  2 female group C          some college     stan~ completed                69
    ##  3 female group B          master's degree  stan~ none                     90
    ##  4 male   group A          associate's deg~ free~ none                     47
    ##  5 male   group C          some college     stan~ none                     76
    ##  6 female group B          associate's deg~ stan~ none                     71
    ##  7 female group B          some college     stan~ completed                88
    ##  8 male   group B          some college     free~ none                     40
    ##  9 male   group D          high school      free~ completed                64
    ## 10 female group B          high school      free~ none                     38
    ## # ... with 990 more rows, and 2 more variables: reading.score <dbl>, `writing
    ## #   score` <dbl>
…
